{
  "channels": [
    {
      "index": 0,
      "pin": 2
    },
    {
      "index": 1,
      "pin": 3
    },
    {
      "index": 2,
      "pin": 4
    },
    {
      "index": 3,
      "pin": 5
    },
    {
      "index": 4,
      "pin": 6
    },
    {
      "index": 5,
      "pin": 7
    },
    {
      "index": 6,
      "pin": 8
    },
    {
      "index": 7,
      "pin": 9
    }
  ],
  "labels": [
    {
      "name": "no_load",
      "positions": [
        {"label": "no_dali"},
        {"label": "lsi_inactive"}
      ]
    },
    {
      "name": "no_dali",
      "positions": [
        {"index":  0, "state": false},
        {"index":  1, "state": false}
      ]
    },
    {
      "name": "dali",
      "positions": [
        {"index":  0, "state": true},
        {"index":  1, "state": false}
      ]
    },
    {
      "name": "1-10v",
      "positions": [
        {"index":  1, "state": true},
        {"index":  2, "state": false}
      ]
    },
    {
      "name": "uart",
      "positions": [
        {"index":  1, "state": true},
        {"index":  2, "state": true}
      ]
    },
    {
      "name": "lsi_inactive",
      "positions": [
        {"index":  6, "state": false}
      ]
    },
    {
      "name": "lsi_active",
      "positions": [
        {"index":  6, "state": true}
      ]
    },
    {
      "name": "dali_led",
      "positions": [
        {"index":  4, "state": false},
        {"index":  5, "state": false}
      ]
    },
    {
      "name": "1-10v_led",
      "positions": [
        {"index":  4, "state": true},
        {"index":  5, "state": true}
      ]
    },
    {
      "name": "dali_power",
      "positions": [
        {"index":  7, "state": false}
      ]
    },
    {
      "name": "1-10v_power",
      "positions": [
        {"index":  7, "state": true}
      ]
    }
  ]
}